<?xml version="1.0" encoding="utf-8"  standalone="no"?>
<svg 
 width="600" height="480"
 viewBox="0 0 600 480"
 xmlns="http://www.w3.org/2000/svg"
 xmlns:xlink="http://www.w3.org/1999/xlink"
>

<title>Gnuplot</title>
<desc>Produced by GNUPLOT 5.2 patchlevel 2 </desc>

<g id="gnuplot_canvas">

<rect x="0" y="0" width="600" height="480" fill="#ffffff"/>
<defs>

	<circle id='gpDot' r='0.5' stroke-width='0.5'/>
	<path id='gpPt0' stroke-width='0.222' stroke='currentColor' d='M-1,0 h2 M0,-1 v2'/>
	<path id='gpPt1' stroke-width='0.222' stroke='currentColor' d='M-1,-1 L1,1 M1,-1 L-1,1'/>
	<path id='gpPt2' stroke-width='0.222' stroke='currentColor' d='M-1,0 L1,0 M0,-1 L0,1 M-1,-1 L1,1 M-1,1 L1,-1'/>
	<rect id='gpPt3' stroke-width='0.222' stroke='currentColor' x='-1' y='-1' width='2' height='2'/>
	<rect id='gpPt4' stroke-width='0.222' stroke='currentColor' fill='currentColor' x='-1' y='-1' width='2' height='2'/>
	<circle id='gpPt5' stroke-width='0.222' stroke='currentColor' cx='0' cy='0' r='1'/>
	<use xlink:href='#gpPt5' id='gpPt6' fill='currentColor' stroke='none'/>
	<path id='gpPt7' stroke-width='0.222' stroke='currentColor' d='M0,-1.33 L-1.33,0.67 L1.33,0.67 z'/>
	<use xlink:href='#gpPt7' id='gpPt8' fill='currentColor' stroke='none'/>
	<use xlink:href='#gpPt7' id='gpPt9' stroke='currentColor' transform='rotate(180)'/>
	<use xlink:href='#gpPt9' id='gpPt10' fill='currentColor' stroke='none'/>
	<use xlink:href='#gpPt3' id='gpPt11' stroke='currentColor' transform='rotate(45)'/>
	<use xlink:href='#gpPt11' id='gpPt12' fill='currentColor' stroke='none'/>
	<path id='gpPt13' stroke-width='0.222' stroke='currentColor' d='M0,1.330 L1.265,0.411 L0.782,-1.067 L-0.782,-1.076 L-1.265,0.411 z'/>
	<use xlink:href='#gpPt13' id='gpPt14' fill='currentColor' stroke='none'/>
	<filter id='textbox' filterUnits='objectBoundingBox' x='0' y='0' height='1' width='1'>
	  <feFlood flood-color='#FFFFFF' flood-opacity='1' result='bgnd'/>
	  <feComposite in='SourceGraphic' in2='bgnd' operator='atop'/>
	</filter>
	<filter id='greybox' filterUnits='objectBoundingBox' x='0' y='0' height='1' width='1'>
	  <feFlood flood-color='lightgrey' flood-opacity='1' result='grey'/>
	  <feComposite in='SourceGraphic' in2='grey' operator='atop'/>
	</filter>
</defs>
<g fill="none" color="#FFFFFF" stroke="currentColor" stroke-width="1.00" stroke-linecap="butt" stroke-linejoin="miter">
</g>
<g fill="none" color="black" stroke="currentColor" stroke-width="1.00" stroke-linecap="butt" stroke-linejoin="miter">
	<path stroke='black'  d='M71.9,422.4 L80.9,422.4 M575.0,422.4 L566.0,422.4  '/>	<g transform="translate(63.6,426.3)" stroke="none" fill="black" font-family="Arial" font-size="12.00"  text-anchor="end">
		<text><tspan font-family="Arial" > 0</tspan></text>
	</g>
</g>
<g fill="none" color="black" stroke="currentColor" stroke-width="1.00" stroke-linecap="butt" stroke-linejoin="miter">
	<path stroke='black'  d='M71.9,369.8 L80.9,369.8 M575.0,369.8 L566.0,369.8  '/>	<g transform="translate(63.6,373.7)" stroke="none" fill="black" font-family="Arial" font-size="12.00"  text-anchor="end">
		<text><tspan font-family="Arial" > 0.5</tspan></text>
	</g>
</g>
<g fill="none" color="black" stroke="currentColor" stroke-width="1.00" stroke-linecap="butt" stroke-linejoin="miter">
	<path stroke='black'  d='M71.9,317.2 L80.9,317.2 M575.0,317.2 L566.0,317.2  '/>	<g transform="translate(63.6,321.1)" stroke="none" fill="black" font-family="Arial" font-size="12.00"  text-anchor="end">
		<text><tspan font-family="Arial" > 1</tspan></text>
	</g>
</g>
<g fill="none" color="black" stroke="currentColor" stroke-width="1.00" stroke-linecap="butt" stroke-linejoin="miter">
	<path stroke='black'  d='M71.9,264.6 L80.9,264.6 M575.0,264.6 L566.0,264.6  '/>	<g transform="translate(63.6,268.5)" stroke="none" fill="black" font-family="Arial" font-size="12.00"  text-anchor="end">
		<text><tspan font-family="Arial" > 1.5</tspan></text>
	</g>
</g>
<g fill="none" color="black" stroke="currentColor" stroke-width="1.00" stroke-linecap="butt" stroke-linejoin="miter">
	<path stroke='black'  d='M71.9,211.9 L80.9,211.9 M575.0,211.9 L566.0,211.9  '/>	<g transform="translate(63.6,215.8)" stroke="none" fill="black" font-family="Arial" font-size="12.00"  text-anchor="end">
		<text><tspan font-family="Arial" > 2</tspan></text>
	</g>
</g>
<g fill="none" color="black" stroke="currentColor" stroke-width="1.00" stroke-linecap="butt" stroke-linejoin="miter">
	<path stroke='black'  d='M71.9,159.3 L80.9,159.3 M575.0,159.3 L566.0,159.3  '/>	<g transform="translate(63.6,163.2)" stroke="none" fill="black" font-family="Arial" font-size="12.00"  text-anchor="end">
		<text><tspan font-family="Arial" > 2.5</tspan></text>
	</g>
</g>
<g fill="none" color="black" stroke="currentColor" stroke-width="1.00" stroke-linecap="butt" stroke-linejoin="miter">
	<path stroke='black'  d='M71.9,106.7 L80.9,106.7 M575.0,106.7 L566.0,106.7  '/>	<g transform="translate(63.6,110.6)" stroke="none" fill="black" font-family="Arial" font-size="12.00"  text-anchor="end">
		<text><tspan font-family="Arial" > 3</tspan></text>
	</g>
</g>
<g fill="none" color="black" stroke="currentColor" stroke-width="1.00" stroke-linecap="butt" stroke-linejoin="miter">
	<path stroke='black'  d='M71.9,54.1 L80.9,54.1 M575.0,54.1 L566.0,54.1  '/>	<g transform="translate(63.6,58.0)" stroke="none" fill="black" font-family="Arial" font-size="12.00"  text-anchor="end">
		<text><tspan font-family="Arial" > 3.5</tspan></text>
	</g>
</g>
<g fill="none" color="black" stroke="currentColor" stroke-width="1.00" stroke-linecap="butt" stroke-linejoin="miter">
	<path stroke='black'  d='M71.9,422.4 L71.9,413.4 M71.9,54.1 L71.9,63.1  '/>	<g transform="translate(71.9,444.3)" stroke="none" fill="black" font-family="Arial" font-size="12.00"  text-anchor="middle">
		<text><tspan font-family="Arial" > 20</tspan></text>
	</g>
</g>
<g fill="none" color="black" stroke="currentColor" stroke-width="1.00" stroke-linecap="butt" stroke-linejoin="miter">
	<path stroke='black'  d='M127.8,422.4 L127.8,413.4 M127.8,54.1 L127.8,63.1  '/>	<g transform="translate(127.8,444.3)" stroke="none" fill="black" font-family="Arial" font-size="12.00"  text-anchor="middle">
		<text><tspan font-family="Arial" > 40</tspan></text>
	</g>
</g>
<g fill="none" color="black" stroke="currentColor" stroke-width="1.00" stroke-linecap="butt" stroke-linejoin="miter">
	<path stroke='black'  d='M183.7,422.4 L183.7,413.4 M183.7,54.1 L183.7,63.1  '/>	<g transform="translate(183.7,444.3)" stroke="none" fill="black" font-family="Arial" font-size="12.00"  text-anchor="middle">
		<text><tspan font-family="Arial" > 60</tspan></text>
	</g>
</g>
<g fill="none" color="black" stroke="currentColor" stroke-width="1.00" stroke-linecap="butt" stroke-linejoin="miter">
	<path stroke='black'  d='M239.6,422.4 L239.6,413.4 M239.6,54.1 L239.6,63.1  '/>	<g transform="translate(239.6,444.3)" stroke="none" fill="black" font-family="Arial" font-size="12.00"  text-anchor="middle">
		<text><tspan font-family="Arial" > 80</tspan></text>
	</g>
</g>
<g fill="none" color="black" stroke="currentColor" stroke-width="1.00" stroke-linecap="butt" stroke-linejoin="miter">
	<path stroke='black'  d='M295.5,422.4 L295.5,413.4 M295.5,54.1 L295.5,63.1  '/>	<g transform="translate(295.5,444.3)" stroke="none" fill="black" font-family="Arial" font-size="12.00"  text-anchor="middle">
		<text><tspan font-family="Arial" > 100</tspan></text>
	</g>
</g>
<g fill="none" color="black" stroke="currentColor" stroke-width="1.00" stroke-linecap="butt" stroke-linejoin="miter">
	<path stroke='black'  d='M351.4,422.4 L351.4,413.4 M351.4,54.1 L351.4,63.1  '/>	<g transform="translate(351.4,444.3)" stroke="none" fill="black" font-family="Arial" font-size="12.00"  text-anchor="middle">
		<text><tspan font-family="Arial" > 120</tspan></text>
	</g>
</g>
<g fill="none" color="black" stroke="currentColor" stroke-width="1.00" stroke-linecap="butt" stroke-linejoin="miter">
	<path stroke='black'  d='M407.3,422.4 L407.3,413.4 M407.3,54.1 L407.3,63.1  '/>	<g transform="translate(407.3,444.3)" stroke="none" fill="black" font-family="Arial" font-size="12.00"  text-anchor="middle">
		<text><tspan font-family="Arial" > 140</tspan></text>
	</g>
</g>
<g fill="none" color="black" stroke="currentColor" stroke-width="1.00" stroke-linecap="butt" stroke-linejoin="miter">
	<path stroke='black'  d='M463.2,422.4 L463.2,413.4 M463.2,54.1 L463.2,63.1  '/>	<g transform="translate(463.2,444.3)" stroke="none" fill="black" font-family="Arial" font-size="12.00"  text-anchor="middle">
		<text><tspan font-family="Arial" > 160</tspan></text>
	</g>
</g>
<g fill="none" color="black" stroke="currentColor" stroke-width="1.00" stroke-linecap="butt" stroke-linejoin="miter">
	<path stroke='black'  d='M519.1,422.4 L519.1,413.4 M519.1,54.1 L519.1,63.1  '/>	<g transform="translate(519.1,444.3)" stroke="none" fill="black" font-family="Arial" font-size="12.00"  text-anchor="middle">
		<text><tspan font-family="Arial" > 180</tspan></text>
	</g>
</g>
<g fill="none" color="black" stroke="currentColor" stroke-width="1.00" stroke-linecap="butt" stroke-linejoin="miter">
	<path stroke='black'  d='M575.0,422.4 L575.0,413.4 M575.0,54.1 L575.0,63.1  '/>	<g transform="translate(575.0,444.3)" stroke="none" fill="black" font-family="Arial" font-size="12.00"  text-anchor="middle">
		<text><tspan font-family="Arial" > 200</tspan></text>
	</g>
</g>
<g fill="none" color="black" stroke="currentColor" stroke-width="1.00" stroke-linecap="butt" stroke-linejoin="miter">
</g>
<g fill="none" color="black" stroke="currentColor" stroke-width="1.00" stroke-linecap="butt" stroke-linejoin="miter">
	<path stroke='black'  d='M71.9,54.1 L71.9,422.4 L575.0,422.4 L575.0,54.1 L71.9,54.1 Z  '/></g>
<g fill="none" color="black" stroke="currentColor" stroke-width="1.00" stroke-linecap="butt" stroke-linejoin="miter">
	<g transform="translate(16.3,238.3) rotate(270)" stroke="none" fill="black" font-family="Arial" font-size="12.00"  text-anchor="middle">
		<text><tspan font-family="Arial" >Diagonalization time, sec</tspan></text>
	</g>
</g>
<g fill="none" color="black" stroke="currentColor" stroke-width="1.00" stroke-linecap="butt" stroke-linejoin="miter">
	<g transform="translate(323.4,471.3)" stroke="none" fill="black" font-family="Arial" font-size="12.00"  text-anchor="middle">
		<text><tspan font-family="Arial" >Matrix size</tspan></text>
	</g>
</g>
<g fill="none" color="black" stroke="currentColor" stroke-width="1.00" stroke-linecap="butt" stroke-linejoin="miter">
	<g transform="translate(323.4,31.0)" stroke="none" fill="black" font-family="Arial" font-size="12.00"  text-anchor="middle">
		<text><tspan font-family="Arial" >Diagonalization time as function of matrix size (x86</tspan><tspan font-family="Arial"  font-size="9.6" dy="3.60px">6</tspan><tspan font-family="Arial"  font-size="12.0" dy="-3.60px">4)</tspan></text>
	</g>
</g>
	<g id="gnuplot_plot_1" ><title>cyclic</title>
<g fill="none" color="black" stroke="currentColor" stroke-width="1.00" stroke-linecap="butt" stroke-linejoin="miter">
	<g transform="translate(320.9,76.0)" stroke="none" fill="black" font-family="Arial" font-size="12.00"  text-anchor="end">
		<text><tspan font-family="Arial" >cyclic</tspan></text>
	</g>
</g>
<g fill="none" color="black" stroke="currentColor" stroke-width="1.00" stroke-linecap="butt" stroke-linejoin="miter">
	<use xlink:href='#gpPt0' transform='translate(351.4,421.3) scale(4.50)' color='rgb(148,   0, 211)'/>
	<use xlink:href='#gpPt0' transform='translate(357.0,420.3) scale(4.50)' color='rgb(148,   0, 211)'/>
	<use xlink:href='#gpPt0' transform='translate(362.6,420.3) scale(4.50)' color='rgb(148,   0, 211)'/>
	<use xlink:href='#gpPt0' transform='translate(368.2,420.3) scale(4.50)' color='rgb(148,   0, 211)'/>
	<use xlink:href='#gpPt0' transform='translate(373.8,419.2) scale(4.50)' color='rgb(148,   0, 211)'/>
	<use xlink:href='#gpPt0' transform='translate(379.4,420.3) scale(4.50)' color='rgb(148,   0, 211)'/>
	<use xlink:href='#gpPt0' transform='translate(384.9,420.3) scale(4.50)' color='rgb(148,   0, 211)'/>
	<use xlink:href='#gpPt0' transform='translate(390.5,420.3) scale(4.50)' color='rgb(148,   0, 211)'/>
	<use xlink:href='#gpPt0' transform='translate(396.1,420.3) scale(4.50)' color='rgb(148,   0, 211)'/>
	<use xlink:href='#gpPt0' transform='translate(401.7,420.3) scale(4.50)' color='rgb(148,   0, 211)'/>
	<use xlink:href='#gpPt0' transform='translate(407.3,420.3) scale(4.50)' color='rgb(148,   0, 211)'/>
	<use xlink:href='#gpPt0' transform='translate(412.9,420.3) scale(4.50)' color='rgb(148,   0, 211)'/>
	<use xlink:href='#gpPt0' transform='translate(418.5,418.2) scale(4.50)' color='rgb(148,   0, 211)'/>
	<use xlink:href='#gpPt0' transform='translate(424.1,419.2) scale(4.50)' color='rgb(148,   0, 211)'/>
	<use xlink:href='#gpPt0' transform='translate(429.7,419.2) scale(4.50)' color='rgb(148,   0, 211)'/>
	<use xlink:href='#gpPt0' transform='translate(435.3,419.2) scale(4.50)' color='rgb(148,   0, 211)'/>
	<use xlink:href='#gpPt0' transform='translate(440.8,419.2) scale(4.50)' color='rgb(148,   0, 211)'/>
	<use xlink:href='#gpPt0' transform='translate(446.4,418.2) scale(4.50)' color='rgb(148,   0, 211)'/>
	<use xlink:href='#gpPt0' transform='translate(452.0,418.2) scale(4.50)' color='rgb(148,   0, 211)'/>
	<use xlink:href='#gpPt0' transform='translate(457.6,418.2) scale(4.50)' color='rgb(148,   0, 211)'/>
	<use xlink:href='#gpPt0' transform='translate(463.2,416.1) scale(4.50)' color='rgb(148,   0, 211)'/>
	<use xlink:href='#gpPt0' transform='translate(468.8,418.2) scale(4.50)' color='rgb(148,   0, 211)'/>
	<use xlink:href='#gpPt0' transform='translate(474.4,417.1) scale(4.50)' color='rgb(148,   0, 211)'/>
	<use xlink:href='#gpPt0' transform='translate(480.0,417.1) scale(4.50)' color='rgb(148,   0, 211)'/>
	<use xlink:href='#gpPt0' transform='translate(485.6,417.1) scale(4.50)' color='rgb(148,   0, 211)'/>
	<use xlink:href='#gpPt0' transform='translate(491.2,417.1) scale(4.50)' color='rgb(148,   0, 211)'/>
	<use xlink:href='#gpPt0' transform='translate(496.7,417.1) scale(4.50)' color='rgb(148,   0, 211)'/>
	<use xlink:href='#gpPt0' transform='translate(502.3,417.1) scale(4.50)' color='rgb(148,   0, 211)'/>
	<use xlink:href='#gpPt0' transform='translate(507.9,414.0) scale(4.50)' color='rgb(148,   0, 211)'/>
	<use xlink:href='#gpPt0' transform='translate(513.5,416.1) scale(4.50)' color='rgb(148,   0, 211)'/>
	<use xlink:href='#gpPt0' transform='translate(519.1,416.1) scale(4.50)' color='rgb(148,   0, 211)'/>
	<use xlink:href='#gpPt0' transform='translate(524.7,415.0) scale(4.50)' color='rgb(148,   0, 211)'/>
	<use xlink:href='#gpPt0' transform='translate(530.3,415.0) scale(4.50)' color='rgb(148,   0, 211)'/>
	<use xlink:href='#gpPt0' transform='translate(535.9,415.0) scale(4.50)' color='rgb(148,   0, 211)'/>
	<use xlink:href='#gpPt0' transform='translate(541.5,414.0) scale(4.50)' color='rgb(148,   0, 211)'/>
	<use xlink:href='#gpPt0' transform='translate(547.1,414.0) scale(4.50)' color='rgb(148,   0, 211)'/>
	<use xlink:href='#gpPt0' transform='translate(552.6,409.8) scale(4.50)' color='rgb(148,   0, 211)'/>
	<use xlink:href='#gpPt0' transform='translate(558.2,414.0) scale(4.50)' color='rgb(148,   0, 211)'/>
	<use xlink:href='#gpPt0' transform='translate(563.8,412.9) scale(4.50)' color='rgb(148,   0, 211)'/>
	<use xlink:href='#gpPt0' transform='translate(569.4,412.9) scale(4.50)' color='rgb(148,   0, 211)'/>
	<use xlink:href='#gpPt0' transform='translate(575.0,411.9) scale(4.50)' color='rgb(148,   0, 211)'/>
	<use xlink:href='#gpPt0' transform='translate(350.3,72.1) scale(4.50)' color='rgb(148,   0, 211)'/>
</g>
	</g>
	<g id="gnuplot_plot_2" ><title>fit: (n/444)3.0</title>
<g fill="none" color="black" stroke="currentColor" stroke-width="1.00" stroke-linecap="butt" stroke-linejoin="miter">
	<g transform="translate(320.9,94.0)" stroke="none" fill="black" font-family="Arial" font-size="12.00"  text-anchor="end">
		<text><tspan font-family="Arial" >fit: (n/444)</tspan><tspan font-family="Arial"  font-size="9.6" dy="-6.00px">3.0</tspan><tspan font-size="12.0" dy="6.00"></tspan></text>
	</g>
</g>
<g fill="none" color="black" stroke="currentColor" stroke-width="1.00" stroke-linecap="butt" stroke-linejoin="miter">
	<path stroke='rgb(  0, 158, 115)'  d='M329.2,90.1 L371.4,90.1 M85.9,422.4 L90.8,422.4 L95.8,422.4 L100.7,422.4 L105.6,422.4 L110.6,422.4
		L115.5,422.3 L120.5,422.3 L125.4,422.3 L130.3,422.3 L135.3,422.3 L140.2,422.3 L145.2,422.3 L150.1,422.3
		L155.0,422.3 L160.0,422.2 L164.9,422.2 L169.9,422.2 L174.8,422.2 L179.7,422.2 L184.7,422.1 L189.6,422.1
		L194.6,422.1 L199.5,422.1 L204.5,422.0 L209.4,422.0 L214.3,422.0 L219.3,421.9 L224.2,421.9 L229.2,421.9
		L234.1,421.8 L239.0,421.8 L244.0,421.7 L248.9,421.7 L253.9,421.7 L258.8,421.6 L263.7,421.6 L268.7,421.5
		L273.6,421.5 L278.6,421.4 L283.5,421.3 L288.4,421.3 L293.4,421.2 L298.3,421.2 L303.3,421.1 L308.2,421.0
		L313.1,421.0 L318.1,420.9 L323.0,420.8 L328.0,420.7 L332.9,420.7 L337.8,420.6 L342.8,420.5 L347.7,420.4
		L352.7,420.3 L357.6,420.2 L362.6,420.1 L367.5,420.0 L372.4,419.9 L377.4,419.8 L382.3,419.7 L387.3,419.6
		L392.2,419.5 L397.1,419.4 L402.1,419.2 L407.0,419.1 L412.0,419.0 L416.9,418.9 L421.8,418.7 L426.8,418.6
		L431.7,418.5 L436.7,418.3 L441.6,418.2 L446.5,418.0 L451.5,417.9 L456.4,417.7 L461.4,417.6 L466.3,417.4
		L471.2,417.2 L476.2,417.0 L481.1,416.9 L486.1,416.7 L491.0,416.5 L495.9,416.3 L500.9,416.1 L505.8,415.9
		L510.8,415.8 L515.7,415.5 L520.7,415.3 L525.6,415.1 L530.5,414.9 L535.5,414.7 L540.4,414.5 L545.4,414.3
		L550.3,414.0 L555.2,413.8 L560.2,413.6 L565.1,413.3 L570.1,413.1 L575.0,412.8  '/></g>
	</g>
	<g id="gnuplot_plot_3" ><title>e-by-e (full diagonalization)</title>
<g fill="none" color="black" stroke="currentColor" stroke-width="1.00" stroke-linecap="butt" stroke-linejoin="miter">
	<g transform="translate(320.9,112.0)" stroke="none" fill="black" font-family="Arial" font-size="12.00"  text-anchor="end">
		<text><tspan font-family="Arial" >e-by-e (full diagonalization)</tspan></text>
	</g>
</g>
<g fill="none" color="black" stroke="currentColor" stroke-width="1.00" stroke-linecap="butt" stroke-linejoin="miter">
	<use xlink:href='#gpPt2' transform='translate(85.9,422.4) scale(4.50)' color='rgb( 86, 180, 233)'/>
	<use xlink:href='#gpPt2' transform='translate(99.9,422.4) scale(4.50)' color='rgb( 86, 180, 233)'/>
	<use xlink:href='#gpPt2' transform='translate(113.8,421.3) scale(4.50)' color='rgb( 86, 180, 233)'/>
	<use xlink:href='#gpPt2' transform='translate(127.8,420.3) scale(4.50)' color='rgb( 86, 180, 233)'/>
	<use xlink:href='#gpPt2' transform='translate(141.8,419.2) scale(4.50)' color='rgb( 86, 180, 233)'/>
	<use xlink:href='#gpPt2' transform='translate(155.8,418.2) scale(4.50)' color='rgb( 86, 180, 233)'/>
	<use xlink:href='#gpPt2' transform='translate(169.7,416.1) scale(4.50)' color='rgb( 86, 180, 233)'/>
	<use xlink:href='#gpPt2' transform='translate(183.7,414.0) scale(4.50)' color='rgb( 86, 180, 233)'/>
	<use xlink:href='#gpPt2' transform='translate(197.7,409.8) scale(4.50)' color='rgb( 86, 180, 233)'/>
	<use xlink:href='#gpPt2' transform='translate(211.7,405.6) scale(4.50)' color='rgb( 86, 180, 233)'/>
	<use xlink:href='#gpPt2' transform='translate(225.6,402.4) scale(4.50)' color='rgb( 86, 180, 233)'/>
	<use xlink:href='#gpPt2' transform='translate(239.6,398.2) scale(4.50)' color='rgb( 86, 180, 233)'/>
	<use xlink:href='#gpPt2' transform='translate(350.3,108.1) scale(4.50)' color='rgb( 86, 180, 233)'/>
</g>
	</g>
	<g id="gnuplot_plot_4" ><title>fit: (n/132)3.0</title>
<g fill="none" color="black" stroke="currentColor" stroke-width="1.00" stroke-linecap="butt" stroke-linejoin="miter">
	<g transform="translate(320.9,130.0)" stroke="none" fill="black" font-family="Arial" font-size="12.00"  text-anchor="end">
		<text><tspan font-family="Arial" >fit: (n/132)</tspan><tspan font-family="Arial"  font-size="9.6" dy="-6.00px">3.0</tspan><tspan font-size="12.0" dy="6.00"></tspan></text>
	</g>
</g>
<g fill="none" color="black" stroke="currentColor" stroke-width="1.00" stroke-linecap="butt" stroke-linejoin="miter">
	<path stroke='rgb(230, 159,   0)'  d='M329.2,126.1 L371.4,126.1 M85.9,421.7 L90.8,421.5 L95.8,421.3 L100.7,421.1 L105.6,420.9 L110.6,420.6
		L115.5,420.3 L120.5,420.0 L125.4,419.6 L130.3,419.3 L135.3,418.8 L140.2,418.4 L145.2,417.9 L150.1,417.3
		L155.0,416.7 L160.0,416.1 L164.9,415.4 L169.9,414.7 L174.8,414.0 L179.7,413.2 L184.7,412.3 L189.6,411.4
		L194.6,410.4 L199.5,409.4 L204.5,408.3 L209.4,407.2 L214.3,406.0 L219.3,404.7 L224.2,403.4 L229.2,402.0
		L234.1,400.6 L239.0,399.0 L244.0,397.5 L248.9,395.8 L253.9,394.1 L258.8,392.3 L263.7,390.4 L268.7,388.4
		L273.6,386.4 L278.6,384.3 L283.5,382.1 L288.4,379.8 L293.4,377.5 L298.3,375.0 L303.3,372.5 L308.2,369.9
		L313.1,367.2 L318.1,364.4 L323.0,361.5 L328.0,358.5 L332.9,355.4 L337.8,352.2 L342.8,348.9 L347.7,345.6
		L352.7,342.1 L357.6,338.5 L362.6,334.8 L367.5,331.0 L372.4,327.1 L377.4,323.1 L382.3,318.9 L387.3,314.7
		L392.2,310.3 L397.1,305.9 L402.1,301.3 L407.0,296.6 L412.0,291.7 L416.9,286.8 L421.8,281.7 L426.8,276.5
		L431.7,271.2 L436.7,265.7 L441.6,260.1 L446.5,254.4 L451.5,248.6 L456.4,242.6 L461.4,236.5 L466.3,230.2
		L471.2,223.8 L476.2,217.3 L481.1,210.6 L486.1,203.8 L491.0,196.8 L495.9,189.7 L500.9,182.5 L505.8,175.0
		L510.8,167.5 L515.7,159.8 L520.7,151.9 L525.6,143.9 L530.5,135.7 L535.5,127.4 L540.4,118.9 L545.4,110.2
		L550.3,101.4 L555.2,92.4 L560.2,83.2 L565.1,73.9 L570.1,64.4 L575.0,54.8  '/></g>
	</g>
<g fill="none" color="#FFFFFF" stroke="rgb(230, 159,   0)" stroke-width="2.00" stroke-linecap="butt" stroke-linejoin="miter">
</g>
<g fill="none" color="black" stroke="currentColor" stroke-width="2.00" stroke-linecap="butt" stroke-linejoin="miter">
</g>
<g fill="none" color="black" stroke="black" stroke-width="1.00" stroke-linecap="butt" stroke-linejoin="miter">
</g>
<g fill="none" color="black" stroke="currentColor" stroke-width="1.00" stroke-linecap="butt" stroke-linejoin="miter">
	<path stroke='black'  d='M71.9,54.1 L71.9,422.4 L575.0,422.4 L575.0,54.1 L71.9,54.1 Z  '/></g>
<g fill="none" color="black" stroke="currentColor" stroke-width="1.00" stroke-linecap="butt" stroke-linejoin="miter">
</g>
</g>
</svg>

