\relax 
\providecommand{\transparent@use}[1]{}
\@writefile{toc}{\contentsline {section}{\numberline {1}Introduction}{1}}
\@writefile{toc}{\contentsline {section}{\numberline {2}Theory}{1}}
\newlabel{eq:IPM}{{1}{1}}
\newlabel{eq:IPMS}{{2}{1}}
\newlabel{eq:RQ}{{4}{1}}
\@writefile{toc}{\contentsline {section}{\numberline {3}Code and concluding comments}{1}}
