<?xml version="1.0" encoding="utf-8"  standalone="no"?>
<svg 
 width="600" height="480"
 viewBox="0 0 600 480"
 xmlns="http://www.w3.org/2000/svg"
 xmlns:xlink="http://www.w3.org/1999/xlink"
>

<title>Gnuplot</title>
<desc>Produced by GNUPLOT 5.2 patchlevel 2 </desc>

<g id="gnuplot_canvas">

<rect x="0" y="0" width="600" height="480" fill="#ffffff"/>
<defs>

	<circle id='gpDot' r='0.5' stroke-width='0.5'/>
	<path id='gpPt0' stroke-width='0.222' stroke='currentColor' d='M-1,0 h2 M0,-1 v2'/>
	<path id='gpPt1' stroke-width='0.222' stroke='currentColor' d='M-1,-1 L1,1 M1,-1 L-1,1'/>
	<path id='gpPt2' stroke-width='0.222' stroke='currentColor' d='M-1,0 L1,0 M0,-1 L0,1 M-1,-1 L1,1 M-1,1 L1,-1'/>
	<rect id='gpPt3' stroke-width='0.222' stroke='currentColor' x='-1' y='-1' width='2' height='2'/>
	<rect id='gpPt4' stroke-width='0.222' stroke='currentColor' fill='currentColor' x='-1' y='-1' width='2' height='2'/>
	<circle id='gpPt5' stroke-width='0.222' stroke='currentColor' cx='0' cy='0' r='1'/>
	<use xlink:href='#gpPt5' id='gpPt6' fill='currentColor' stroke='none'/>
	<path id='gpPt7' stroke-width='0.222' stroke='currentColor' d='M0,-1.33 L-1.33,0.67 L1.33,0.67 z'/>
	<use xlink:href='#gpPt7' id='gpPt8' fill='currentColor' stroke='none'/>
	<use xlink:href='#gpPt7' id='gpPt9' stroke='currentColor' transform='rotate(180)'/>
	<use xlink:href='#gpPt9' id='gpPt10' fill='currentColor' stroke='none'/>
	<use xlink:href='#gpPt3' id='gpPt11' stroke='currentColor' transform='rotate(45)'/>
	<use xlink:href='#gpPt11' id='gpPt12' fill='currentColor' stroke='none'/>
	<path id='gpPt13' stroke-width='0.222' stroke='currentColor' d='M0,1.330 L1.265,0.411 L0.782,-1.067 L-0.782,-1.076 L-1.265,0.411 z'/>
	<use xlink:href='#gpPt13' id='gpPt14' fill='currentColor' stroke='none'/>
	<filter id='textbox' filterUnits='objectBoundingBox' x='0' y='0' height='1' width='1'>
	  <feFlood flood-color='#FFFFFF' flood-opacity='1' result='bgnd'/>
	  <feComposite in='SourceGraphic' in2='bgnd' operator='atop'/>
	</filter>
	<filter id='greybox' filterUnits='objectBoundingBox' x='0' y='0' height='1' width='1'>
	  <feFlood flood-color='lightgrey' flood-opacity='1' result='grey'/>
	  <feComposite in='SourceGraphic' in2='grey' operator='atop'/>
	</filter>
</defs>
<g fill="none" color="#FFFFFF" stroke="currentColor" stroke-width="1.00" stroke-linecap="butt" stroke-linejoin="miter">
</g>
<g fill="none" color="black" stroke="currentColor" stroke-width="1.00" stroke-linecap="butt" stroke-linejoin="miter">
	<path stroke='black'  d='M63.6,422.4 L72.6,422.4 M575.0,422.4 L566.0,422.4  '/>	<g transform="translate(55.3,426.3)" stroke="none" fill="black" font-family="Arial" font-size="12.00"  text-anchor="end">
		<text><tspan font-family="Arial" > 0</tspan></text>
	</g>
</g>
<g fill="none" color="black" stroke="currentColor" stroke-width="1.00" stroke-linecap="butt" stroke-linejoin="miter">
	<path stroke='black'  d='M63.6,369.8 L72.6,369.8 M575.0,369.8 L566.0,369.8  '/>	<g transform="translate(55.3,373.7)" stroke="none" fill="black" font-family="Arial" font-size="12.00"  text-anchor="end">
		<text><tspan font-family="Arial" > 2</tspan></text>
	</g>
</g>
<g fill="none" color="black" stroke="currentColor" stroke-width="1.00" stroke-linecap="butt" stroke-linejoin="miter">
	<path stroke='black'  d='M63.6,317.2 L72.6,317.2 M575.0,317.2 L566.0,317.2  '/>	<g transform="translate(55.3,321.1)" stroke="none" fill="black" font-family="Arial" font-size="12.00"  text-anchor="end">
		<text><tspan font-family="Arial" > 4</tspan></text>
	</g>
</g>
<g fill="none" color="black" stroke="currentColor" stroke-width="1.00" stroke-linecap="butt" stroke-linejoin="miter">
	<path stroke='black'  d='M63.6,264.6 L72.6,264.6 M575.0,264.6 L566.0,264.6  '/>	<g transform="translate(55.3,268.5)" stroke="none" fill="black" font-family="Arial" font-size="12.00"  text-anchor="end">
		<text><tspan font-family="Arial" > 6</tspan></text>
	</g>
</g>
<g fill="none" color="black" stroke="currentColor" stroke-width="1.00" stroke-linecap="butt" stroke-linejoin="miter">
	<path stroke='black'  d='M63.6,211.9 L72.6,211.9 M575.0,211.9 L566.0,211.9  '/>	<g transform="translate(55.3,215.8)" stroke="none" fill="black" font-family="Arial" font-size="12.00"  text-anchor="end">
		<text><tspan font-family="Arial" > 8</tspan></text>
	</g>
</g>
<g fill="none" color="black" stroke="currentColor" stroke-width="1.00" stroke-linecap="butt" stroke-linejoin="miter">
	<path stroke='black'  d='M63.6,159.3 L72.6,159.3 M575.0,159.3 L566.0,159.3  '/>	<g transform="translate(55.3,163.2)" stroke="none" fill="black" font-family="Arial" font-size="12.00"  text-anchor="end">
		<text><tspan font-family="Arial" > 10</tspan></text>
	</g>
</g>
<g fill="none" color="black" stroke="currentColor" stroke-width="1.00" stroke-linecap="butt" stroke-linejoin="miter">
	<path stroke='black'  d='M63.6,106.7 L72.6,106.7 M575.0,106.7 L566.0,106.7  '/>	<g transform="translate(55.3,110.6)" stroke="none" fill="black" font-family="Arial" font-size="12.00"  text-anchor="end">
		<text><tspan font-family="Arial" > 12</tspan></text>
	</g>
</g>
<g fill="none" color="black" stroke="currentColor" stroke-width="1.00" stroke-linecap="butt" stroke-linejoin="miter">
	<path stroke='black'  d='M63.6,54.1 L72.6,54.1 M575.0,54.1 L566.0,54.1  '/>	<g transform="translate(55.3,58.0)" stroke="none" fill="black" font-family="Arial" font-size="12.00"  text-anchor="end">
		<text><tspan font-family="Arial" > 14</tspan></text>
	</g>
</g>
<g fill="none" color="black" stroke="currentColor" stroke-width="1.00" stroke-linecap="butt" stroke-linejoin="miter">
	<path stroke='black'  d='M63.6,422.4 L63.6,413.4 M63.6,54.1 L63.6,63.1  '/>	<g transform="translate(63.6,444.3)" stroke="none" fill="black" font-family="Arial" font-size="12.00"  text-anchor="middle">
		<text><tspan font-family="Arial" > 0</tspan></text>
	</g>
</g>
<g fill="none" color="black" stroke="currentColor" stroke-width="1.00" stroke-linecap="butt" stroke-linejoin="miter">
	<path stroke='black'  d='M114.7,422.4 L114.7,413.4 M114.7,54.1 L114.7,63.1  '/>	<g transform="translate(114.7,444.3)" stroke="none" fill="black" font-family="Arial" font-size="12.00"  text-anchor="middle">
		<text><tspan font-family="Arial" > 0.2</tspan></text>
	</g>
</g>
<g fill="none" color="black" stroke="currentColor" stroke-width="1.00" stroke-linecap="butt" stroke-linejoin="miter">
	<path stroke='black'  d='M165.9,422.4 L165.9,413.4 M165.9,54.1 L165.9,63.1  '/>	<g transform="translate(165.9,444.3)" stroke="none" fill="black" font-family="Arial" font-size="12.00"  text-anchor="middle">
		<text><tspan font-family="Arial" > 0.4</tspan></text>
	</g>
</g>
<g fill="none" color="black" stroke="currentColor" stroke-width="1.00" stroke-linecap="butt" stroke-linejoin="miter">
	<path stroke='black'  d='M217.0,422.4 L217.0,413.4 M217.0,54.1 L217.0,63.1  '/>	<g transform="translate(217.0,444.3)" stroke="none" fill="black" font-family="Arial" font-size="12.00"  text-anchor="middle">
		<text><tspan font-family="Arial" > 0.6</tspan></text>
	</g>
</g>
<g fill="none" color="black" stroke="currentColor" stroke-width="1.00" stroke-linecap="butt" stroke-linejoin="miter">
	<path stroke='black'  d='M268.2,422.4 L268.2,413.4 M268.2,54.1 L268.2,63.1  '/>	<g transform="translate(268.2,444.3)" stroke="none" fill="black" font-family="Arial" font-size="12.00"  text-anchor="middle">
		<text><tspan font-family="Arial" > 0.8</tspan></text>
	</g>
</g>
<g fill="none" color="black" stroke="currentColor" stroke-width="1.00" stroke-linecap="butt" stroke-linejoin="miter">
	<path stroke='black'  d='M319.3,422.4 L319.3,413.4 M319.3,54.1 L319.3,63.1  '/>	<g transform="translate(319.3,444.3)" stroke="none" fill="black" font-family="Arial" font-size="12.00"  text-anchor="middle">
		<text><tspan font-family="Arial" > 1</tspan></text>
	</g>
</g>
<g fill="none" color="black" stroke="currentColor" stroke-width="1.00" stroke-linecap="butt" stroke-linejoin="miter">
	<path stroke='black'  d='M370.4,422.4 L370.4,413.4 M370.4,54.1 L370.4,63.1  '/>	<g transform="translate(370.4,444.3)" stroke="none" fill="black" font-family="Arial" font-size="12.00"  text-anchor="middle">
		<text><tspan font-family="Arial" > 1.2</tspan></text>
	</g>
</g>
<g fill="none" color="black" stroke="currentColor" stroke-width="1.00" stroke-linecap="butt" stroke-linejoin="miter">
	<path stroke='black'  d='M421.6,422.4 L421.6,413.4 M421.6,54.1 L421.6,63.1  '/>	<g transform="translate(421.6,444.3)" stroke="none" fill="black" font-family="Arial" font-size="12.00"  text-anchor="middle">
		<text><tspan font-family="Arial" > 1.4</tspan></text>
	</g>
</g>
<g fill="none" color="black" stroke="currentColor" stroke-width="1.00" stroke-linecap="butt" stroke-linejoin="miter">
	<path stroke='black'  d='M472.7,422.4 L472.7,413.4 M472.7,54.1 L472.7,63.1  '/>	<g transform="translate(472.7,444.3)" stroke="none" fill="black" font-family="Arial" font-size="12.00"  text-anchor="middle">
		<text><tspan font-family="Arial" > 1.6</tspan></text>
	</g>
</g>
<g fill="none" color="black" stroke="currentColor" stroke-width="1.00" stroke-linecap="butt" stroke-linejoin="miter">
	<path stroke='black'  d='M523.9,422.4 L523.9,413.4 M523.9,54.1 L523.9,63.1  '/>	<g transform="translate(523.9,444.3)" stroke="none" fill="black" font-family="Arial" font-size="12.00"  text-anchor="middle">
		<text><tspan font-family="Arial" > 1.8</tspan></text>
	</g>
</g>
<g fill="none" color="black" stroke="currentColor" stroke-width="1.00" stroke-linecap="butt" stroke-linejoin="miter">
	<path stroke='black'  d='M575.0,422.4 L575.0,413.4 M575.0,54.1 L575.0,63.1  '/>	<g transform="translate(575.0,444.3)" stroke="none" fill="black" font-family="Arial" font-size="12.00"  text-anchor="middle">
		<text><tspan font-family="Arial" > 2</tspan></text>
	</g>
</g>
<g fill="none" color="black" stroke="currentColor" stroke-width="1.00" stroke-linecap="butt" stroke-linejoin="miter">
</g>
<g fill="none" color="black" stroke="currentColor" stroke-width="1.00" stroke-linecap="butt" stroke-linejoin="miter">
	<path stroke='black'  d='M63.6,54.1 L63.6,422.4 L575.0,422.4 L575.0,54.1 L63.6,54.1 Z  '/></g>
<g fill="none" color="black" stroke="currentColor" stroke-width="1.00" stroke-linecap="butt" stroke-linejoin="miter">
	<g transform="translate(16.3,238.3) rotate(270)" stroke="none" fill="black" font-family="Arial" font-size="12.00"  text-anchor="middle">
		<text><tspan font-family="Arial" >E(alpha)</tspan></text>
	</g>
</g>
<g fill="none" color="black" stroke="currentColor" stroke-width="1.00" stroke-linecap="butt" stroke-linejoin="miter">
	<g transform="translate(319.3,471.3)" stroke="none" fill="black" font-family="Arial" font-size="12.00"  text-anchor="middle">
		<text><tspan font-family="Arial" >alpha</tspan></text>
	</g>
</g>
<g fill="none" color="black" stroke="currentColor" stroke-width="1.00" stroke-linecap="butt" stroke-linejoin="miter">
	<g transform="translate(319.3,31.0)" stroke="none" fill="black" font-family="Arial" font-size="12.00"  text-anchor="middle">
		<text><tspan font-family="Arial" >Energy as a function of alpha</tspan></text>
	</g>
</g>
	<g id="gnuplot_plot_1" ><title>E(alpha)</title>
<g fill="none" color="black" stroke="currentColor" stroke-width="1.00" stroke-linecap="butt" stroke-linejoin="miter">
	<g transform="translate(138.3,76.0)" stroke="none" fill="black" font-family="Arial" font-size="12.00"  text-anchor="end">
		<text><tspan font-family="Arial" >E(alpha)</tspan></text>
	</g>
</g>
<g fill="none" color="black" stroke="currentColor" stroke-width="1.00" stroke-linecap="butt" stroke-linejoin="miter">
	<path stroke='rgb(148,   0, 211)'  d='M146.6,72.1 L188.8,72.1 M68.7,93.4 L71.3,203.0 L73.8,257.7 L76.4,290.5 L78.9,312.4 L81.5,328.0
		L84.1,339.7 L86.6,348.7 L89.2,356.0 L91.7,361.9 L94.3,366.8 L96.8,371.0 L99.4,374.5 L102.0,377.6
		L104.5,380.2 L107.1,382.6 L109.6,384.7 L112.2,386.5 L114.7,388.2 L117.3,389.7 L119.9,391.1 L122.4,392.3
		L125.0,393.4 L127.5,394.4 L130.1,395.4 L132.6,396.3 L135.2,397.1 L137.8,397.8 L140.3,398.5 L142.9,399.1
		L145.4,399.7 L148.0,400.3 L150.5,400.8 L153.1,401.3 L155.7,401.8 L158.2,402.2 L160.8,402.6 L163.3,403.0
		L165.9,403.3 L168.4,403.7 L171.0,404.0 L173.6,404.3 L176.1,404.6 L178.7,404.8 L181.2,405.1 L183.8,405.3
		L186.3,405.5 L188.9,405.8 L191.5,406.0 L194.0,406.2 L196.6,406.3 L199.1,406.5 L201.7,406.7 L204.2,406.8
		L206.8,407.0 L209.3,407.1 L211.9,407.2 L214.5,407.4 L217.0,407.5 L219.6,407.6 L222.1,407.7 L224.7,407.8
		L227.2,407.9 L229.8,408.0 L232.4,408.1 L234.9,408.2 L237.5,408.3 L240.0,408.3 L242.6,408.4 L245.1,408.5
		L247.7,408.5 L250.3,408.6 L252.8,408.6 L255.4,408.7 L257.9,408.7 L260.5,408.8 L263.0,408.8 L265.6,408.9
		L268.2,408.9 L270.7,409.0 L273.3,409.0 L275.8,409.0 L278.4,409.0 L280.9,409.1 L283.5,409.1 L286.1,409.1
		L288.6,409.1 L291.2,409.2 L293.7,409.2 L296.3,409.2 L298.8,409.2 L301.4,409.2 L304.0,409.2 L306.5,409.2
		L309.1,409.2 L311.6,409.2 L314.2,409.2 L316.7,409.2 L319.3,409.2 L321.9,409.2 L324.4,409.2 L327.0,409.2
		L329.5,409.2 L332.1,409.2 L334.6,409.2 L337.2,409.2 L339.8,409.2 L342.3,409.2 L344.9,409.2 L347.4,409.2
		L350.0,409.2 L352.5,409.1 L355.1,409.1 L357.7,409.1 L360.2,409.1 L362.8,409.1 L365.3,409.1 L367.9,409.0
		L370.4,409.0 L373.0,409.0 L375.6,409.0 L378.1,409.0 L380.7,408.9 L383.2,408.9 L385.8,408.9 L388.3,408.9
		L390.9,408.8 L393.5,408.8 L396.0,408.8 L398.6,408.8 L401.1,408.7 L403.7,408.7 L406.2,408.7 L408.8,408.6
		L411.4,408.6 L413.9,408.6 L416.5,408.6 L419.0,408.5 L421.6,408.5 L424.1,408.5 L426.7,408.4 L429.3,408.4
		L431.8,408.4 L434.4,408.3 L436.9,408.3 L439.5,408.3 L442.0,408.2 L444.6,408.2 L447.2,408.2 L449.7,408.1
		L452.3,408.1 L454.8,408.0 L457.4,408.0 L459.9,408.0 L462.5,407.9 L465.0,407.9 L467.6,407.8 L470.2,407.8
		L472.7,407.8 L475.3,407.7 L477.8,407.7 L480.4,407.6 L482.9,407.6 L485.5,407.6 L488.1,407.5 L490.6,407.5
		L493.2,407.4 L495.7,407.4 L498.3,407.4 L500.8,407.3 L503.4,407.3 L506.0,407.2 L508.5,407.2 L511.1,407.1
		L513.6,407.1 L516.2,407.0 L518.7,407.0 L521.3,407.0 L523.9,406.9 L526.4,406.9 L529.0,406.8 L531.5,406.8
		L534.1,406.7 L536.6,406.7 L539.2,406.6 L541.8,406.6 L544.3,406.5 L546.9,406.5 L549.4,406.4 L552.0,406.4
		L554.5,406.3 L557.1,406.3 L559.7,406.3 L562.2,406.2 L564.8,406.2 L567.3,406.1 L569.9,406.1 L572.4,406.0
		 '/></g>
	</g>
<g fill="none" color="#FFFFFF" stroke="rgb(148,   0, 211)" stroke-width="2.00" stroke-linecap="butt" stroke-linejoin="miter">
</g>
<g fill="none" color="black" stroke="currentColor" stroke-width="2.00" stroke-linecap="butt" stroke-linejoin="miter">
</g>
<g fill="none" color="black" stroke="black" stroke-width="1.00" stroke-linecap="butt" stroke-linejoin="miter">
</g>
<g fill="none" color="black" stroke="currentColor" stroke-width="1.00" stroke-linecap="butt" stroke-linejoin="miter">
	<path stroke='black'  d='M63.6,54.1 L63.6,422.4 L575.0,422.4 L575.0,54.1 L63.6,54.1 Z  '/></g>
<g fill="none" color="black" stroke="currentColor" stroke-width="1.00" stroke-linecap="butt" stroke-linejoin="miter">
</g>
</g>
</svg>

