iter =   0 x = -10.000 -5.000f(x) =  1.100e+01 -1.050e+03
iter =   1 x = -10.000 -5.000f(x) =  1.100e+01 -1.050e+03
iter =   2 x = -3.976  24.827f(x) =  4.976e+00  9.020e+01
iter =   3 x = -3.976  24.827f(x) =  4.976e+00  9.020e+01
iter =   4 x = -3.976  24.827f(x) =  4.976e+00  9.020e+01
iter =   5 x = -1.274 -5.680f(x) =  2.274e+00 -7.302e+01
iter =   6 x = -1.274 -5.680f(x) =  2.274e+00 -7.302e+01
iter =   7 x =  0.249  0.298f(x) =  7.511e-01  2.359e+00
iter =   8 x =  0.249  0.298f(x) =  7.511e-01  2.359e+00
iter =   9 x =  1.000  0.878f(x) = -2.653e-10 -1.218e+00
iter =  10 x =  1.000  0.989f(x) = -2.353e-11 -1.080e-01
iter =  11 x =  1.000  1.000f(x) =  0.000e+00  0.000e+00
status = success
