10000 0.0123227
20000 0.0079223
30000 0.00560735
40000 0.00298596
50000 0.00349315
60000 0.00314068
70000 0.00416657
80000 0.00553602
90000 0.00520735
100000 0.00463881
110000 0.00220996
120000 0.000807346
130000 0.00218538
140000 0.00285227
150000 0.00491401
160000 0.00467701
170000 0.00444436
180000 0.00385179
190000 0.00221337
200000 0.000938772
210000 0.000883537
220000 0.00102163
230000 1.75095e-05
240000 0.000125987
250000 0.000259914
260000 0.00126229
270000 0.00237772
280000 0.00240429
290000 0.00215317
300000 0.00239401
310000 0.000520708
320000 0.00177699
330000 0.00137704
340000 0.00165189
350000 0.00135102
360000 0.00241846
370000 0.0023726
380000 0.00238179
390000 0.00153555
400000 0.0015852
410000 0.00205195
420000 0.00151211
430000 0.00162396
440000 0.00158527
450000 0.0019629
460000 0.00170983
470000 0.00187604
480000 0.00189901
490000 0.00218519
500000 0.00221192
510000 0.00226617
520000 0.00216724
530000 0.00174751
540000 0.00154068
550000 0.00223852
560000 0.00203286
570000 0.00176875
580000 0.00209553
590000 0.00220783
600000 0.00190735
610000 0.00196004
620000 0.00168845
630000 0.00159465
640000 0.00129976
650000 0.00124779
660000 0.00141341
670000 0.00162995
680000 0.00152836
690000 0.00160735
700000 0.00137755
710000 0.00102465
720000 0.000651791
730000 0.00092124
740000 0.00130773
750000 0.00119135
760000 0.00105359
770000 0.00137655
780000 0.00123812
790000 0.00126702
800000 0.0010802
810000 0.00130611
820000 0.00111362
830000 0.00127757
840000 0.00118354
850000 0.00130516
860000 0.00115419
870000 0.00154758
880000 0.00159274
890000 0.00151553
900000 0.00177624
910000 0.00165476
920000 0.00141418
930000 0.00137079
940000 0.000891541
950000 0.000792909
960000 0.000636513
970000 0.000546668
980000 0.000479065
990000 0.000350781
